REPORTE DE TAREAS SIN PROGRAMACION;;;;;;;;;;;;;;;;;;;;;;;;;;;;
0;1;2;3;4;5;6;7;8;9;10;11;12;13;14;15;16;17;18;19;20;21;22;23;24;25;26;27;28
ORDEN;EMPRESA;TAREA;PRODUCTO;CANTIDAD PEDIDA;CANTIDAD SIN PROGRAMAR;HORAS EJECUTADAS;SALDO DE HORAS;FECHA EJECUCIÓN;CONTACTO;ESTADO LLAMADA;CTOC TELEFONO;SALDO REAL A PROGRAMAR;FECHA ENTREGA INICIAL;FECHA ENTREGA FINAL;FECHA APROBACIÓN;PRIORIDAD;CÓDIGO MUNICIPIO ORIGEN;MUNICIPIO ORIGEN;CÓDIGO MUNICIPIO DESTINO;MUNICIPIO DESTINO;CTPPAL DOMICILIO;CTPPAL TELEFONO;RESPONDE LLAMADA;DNI USUARIO GESTIÓN CITA;USUARIO GESTIÓN CITA;FECHA GESTIÓN CITA;OBSERVACIONES CRONOGRAMA;OBSERVACIONES ORDEN
4075673;ALTEA FARMACEUTICA SA;PRACTICAS SEGURAS;PVE  PARA LA PREVENCIÓN DE DESORDENES MUSCULO ESQUELETICOS;20.0;20.0;"$ 15,00";15;COT 10 // SEP 5 // NOV 5;;;4466300;20.0;2020/09/01;2020/09/30;2020/07/28;N;586;BOGOTA;586;BOGOTA;CL 10 # 65 - 28 SECT AMERICAS;4466300;;;;;REHABILITAR EXPRESS// DEFINIR ACCIONES DE CONTROL DE ACUERDO CON ANALISIS DE FACTOR DE RIESGO. CONTACTO MAYERLY GONZALEZ CEL: 3108838765;REHABILITAR EXPRESS// DEFINIR ACCIONES DE CONTROL DE ACUERDO CON ANALISIS DE FACTOR DE RIESGO. CONTACTO MAYERLY GONZALEZ CEL: 3108838765
4167707;SACYR CONSTRUCCION COLOMBIA SAS;PRACTICAS SEGURAS;SVE PARA RIESGO BIOLOGICO- COVID 19;16.0;16.0;;;;;;7442320;16.0;2020/09/17;2020/09/30;2020/09/17;N;586;BOGOTA;586;BOGOTA;CL 99 # 14 - 49 APTO 4 EDIF EAR BRR CHICO NORTE BG;7442320;;;;;"REVISION DE LAS CONDICIONES DE SEGURIDADI IMPLEMENTADAS POR LA EMPRESA PARA LA PREVENCION DE COVID 19 EN LAS OFICINA PRINCIPAL, REALIZAR CONTACTO Y ENTREGA DE INFORME 			 ";"REVISION DE LAS CONDICIONES DE SEGURIDADI IMPLEMENTADAS POR LA EMPRESA PARA LA PREVENCION DE COVID 19 EN LAS OFICINA PRINCIPAL, REALIZAR CONTACTO Y ENTREGA DE INFORME 			 "
4170327;PROYECCION LABORAL SAS;PRACTICAS SEGURAS;INTERVENCIÓN DEL  AT Y EL;4.0;4.0;;;;;;3023895813;4.0;2020/09/18;2020/09/30;2020/09/18;N;586;BOGOTA;586;BOGOTA;CR 23 # 86 - 05;2561444;;;;;CAPACITACION EN CUIDADO DE LA VOZ;CAPACITACION EN CUIDADO DE LA VOZ
4054946;CEPSA SA;PRACTICAS SEGURAS;PVE  PARA LA PREVENCIÓN DE DESORDENES MUSCULO ESQUELETICOS;36.0;36.0;;;;;;6583800;36.0;2020/07/16;2020/07/31;2020/07/16;N;586;BOGOTA;586;BOGOTA;CL 113 7-80 P 9 TRR AR BRR STA BARBARA;6583800;;;;;REHABILITAR EXPRESS// PROGRAMA DE FORMACIÓN PARA PREVENCION DE DME PARA LA POBLACIÓN DE CEPSA SON 7 SESIONES DE 2 HORAS CADA UNA;REHABILITAR EXPRESS// PROGRAMA DE FORMACIÓN PARA PREVENCION DE DME PARA LA POBLACIÓN DE CEPSA SON 7 SESIONES DE 2 HORAS CADA UNA
4064666;CEPSA SA;ERGONOMIA APLICADA A LOS PUESTOS DE TRABAJO Y MANEJO DE CARGAS;PVE  PARA LA PREVENCIÓN DE DESORDENES MUSCULO ESQUELETICOS;36.0;36.0;;;;;;6583800;36.0;2020/08/01;2020/08/31;2020/07/23;N;586;BOGOTA;586;BOGOTA;CL 113 7-80 P 9 TRR AR BRR STA BARBARA;6583800;;;;;REHABILITAR EXPRES// ASESORIA Y CAPACITACION EN PROGRAMA PREVENCIÓN OSTEOMUSCULAR;REHABILITAR EXPRES// ASESORIA Y CAPACITACION EN PROGRAMA PREVENCIÓN OSTEOMUSCULAR
4112052;INGENIERIA Y MANTENIMIENTO S.A.S;"PROMOCION DE LA SALUD Y HABITOS SALUDABLES
";INTERVENCIÓN DEL  AT Y EL;2.0;2.0;;;;;;3004786093/3183364699;2.0;2020/08/19;2020/08/31;2020/08/19;N;586;BOGOTA;586;BOGOTA;CR 13  134 C-03 P 1 BRR NUEVO COUNTRY;5893207;;;;;Formación en estilos de vida saludable;Formación en estilos de vida saludable
4077810;ANDRITZ HYDRO LTDA;MODULO 4. INSPECCIONES DE SEGURIDAD;PVE  PARA LA PREVENCIÓN DE DESORDENES MUSCULO ESQUELETICOS;10.0;10.0;;;;;;3174285269;10.0;2020/11/01;2020/11/30;2020/07/29;N;586;BOGOTA;586;BOGOTA;CR 67 # 100 - 20 PISO 9 OFIC 901 EDIF COASMEDA;7448200;;;;;SISTEMA DE VIGILANCIA DE RIESGO BIOMECANICO;SISTEMA DE VIGILANCIA DE RIESGO BIOMECANICO
4076021;ALTEA FARMACEUTICA SA;PREVENCION DE DESORDENES MUSCULOESQUELETICO;PVE  PARA LA PREVENCIÓN DE DESORDENES MUSCULO ESQUELETICOS;20.0;20.0;;;;;;4466300;20.0;2020/10/01;2020/10/31;2020/07/28;N;586;BOGOTA;586;BOGOTA;CL 10 # 65 - 28 SECT AMERICAS;4466300;;;;;REHABILITAR EXPRESS// IDENTIFICAR LOS FACTORES DE RIESGO POR SEGMENTO EN CADA UNA DE LAS LINEAS DE PRODUCCION - LINEAS CON MAYOR CARGA POR SEGMENTO CORPORAL. CONTACTO MAYERLY GONZALEZ CEL: 3108838765;REHABILITAR EXPRESS// IDENTIFICAR LOS FACTORES DE RIESGO POR SEGMENTO EN CADA UNA DE LAS LINEAS DE PRODUCCION - LINEAS CON MAYOR CARGA POR SEGMENTO CORPORAL. CONTACTO MAYERLY GONZALEZ CEL: 3108838765
4174880;CONSALT INTERNATIONAL;PREVENCION DE DESORDENES MUSCULOESQUELETICO;PVE  PARA LA PREVENCIÓN DE DESORDENES MUSCULO ESQUELETICOS;8.0;8.0;;;;;;3124001078;8.0;2020/10/01;2020/10/31;2020/09/21;N;586;BOGOTA;586;BOGOTA;CL 22 D # 127 D - 84 BDGA 11;2367690;;;;;acciones de capacitación asociadas a pve osteomuscular;acciones de capacitación asociadas a pve osteomuscular
4077822;ANDRITZ HYDRO LTDA;PREVENCION DE DESORDENES MUSCULOESQUELETICO;PVE  PARA LA PREVENCIÓN DE DESORDENES MUSCULO ESQUELETICOS;10.0;10.0;;;;;;3174285269;10.0;2020/07/29;2020/07/31;2020/07/29;N;586;BOGOTA;586;BOGOTA;CR 67 # 100 - 20 PISO 9 OFIC 901 EDIF COASMEDA;7448200;;;;;SISTEMA DE VIGILANCIA DE RIESGO BIOMECANICO;SISTEMA DE VIGILANCIA DE RIESGO BIOMECANICO
4077812;ANDRITZ HYDRO LTDA;PREVENCION DE DESORDENES MUSCULOESQUELETICO;PVE  PARA LA PREVENCIÓN DE DESORDENES MUSCULO ESQUELETICOS;10.0;10.0;;;;;;3174285269;10.0;2020/07/29;2020/07/31;2020/07/29;N;586;BOGOTA;586;BOGOTA;CR 67 # 100 - 20 PISO 9 OFIC 901 EDIF COASMEDA;7448200;;;;;SISTEMA DE VIGILANCIA DE RIESGO BIOMECANICO;SISTEMA DE VIGILANCIA DE RIESGO BIOMECANICO
4059057;M G M INGENIERIA Y PROYECTOS SAS;PREVENCION DE DESORDENES MUSCULOESQUELETICO;PVE  PARA LA PREVENCIÓN DE DESORDENES MUSCULO ESQUELETICOS;20.0;14.0;;;;;;4321120;14.0;2020/09/01;2020/09/30;2020/07/19;N;586;BOGOTA;586;BOGOTA;CL 19 SUR # 28 - 15;4321120;;;;;CONTINUIDAD AL SISTEMA DE VIGILANCIA EPIDEMIOLÓGICO MUSCULOESQUELÉTICO;CONTINUIDAD AL SISTEMA DE VIGILANCIA EPIDEMIOLÓGICO MUSCULOESQUELÉTICO
4066874;GOMEZ CAJIAO Y ASOCIADOS SA;PAUSAS SALUDABLES;PVE  PARA LA PREVENCIÓN DE DESORDENES MUSCULO ESQUELETICOS;48.0;48.0;;;;;;4322880;48.0;2020/08/01;2020/08/31;2020/07/23;N;586;BOGOTA;586;BOGOTA;TV 23  97-73 P 7 OF 707 ED CITY BUSSINES BR CHICO;3213838032;;;;;"REHABILITAR EXPRESS/// PROGRAMA DE ACONDICIONAMIENTO FÍSICO PARA LA PREVENCIÓN DE DESORDENES MUSCULO ESQUELÉTICOS, 48 HRS/MES";"REHABILITAR EXPRESS/// PROGRAMA DE ACONDICIONAMIENTO FÍSICO PARA LA PREVENCIÓN DE DESORDENES MUSCULO ESQUELÉTICOS, 48 HRS/MES"
4066873;GOMEZ CAJIAO Y ASOCIADOS SA;PAUSAS SALUDABLES;PVE  PARA LA PREVENCIÓN DE DESORDENES MUSCULO ESQUELETICOS;48.0;48.0;;;;;;4322880;48.0;2020/12/01;2020/12/31;2020/07/23;N;586;BOGOTA;586;BOGOTA;TV 23  97-73 P 7 OF 707 ED CITY BUSSINES BR CHICO;3213838032;;;;;"REHABILITAR EXPRESS/// PROGRAMA DE ACONDICIONAMIENTO FÍSICO PARA LA PREVENCIÓN DE DESORDENES MUSCULO ESQUELÉTICOS, 48 HRS/MES";"REHABILITAR EXPRESS/// PROGRAMA DE ACONDICIONAMIENTO FÍSICO PARA LA PREVENCIÓN DE DESORDENES MUSCULO ESQUELÉTICOS, 48 HRS/MES"
4165189;PROMOCON S.A.;PAUSAS SALUDABLES;PVE  PARA LA PREVENCIÓN DE DESORDENES MUSCULO ESQUELETICOS;2.0;2.0;;;;;;6226250;2.0;2020/10/01;2020/10/31;2020/09/16;N;586;BOGOTA;586;BOGOTA;CR 47 A  91-32 BRR LA CASTELLANA;6226250;;;;;RUMBA AEROBICA OBRA COTA 8 DE OCTUBRE RUMBATERAPIA EN ZONA FRANCA METROPOLITANA VEREDA VUELTA GRANDE PREDIO SAN RAFAEL KM 2.5 VI A SIBERIA HORA 10 AM  CONTACTO STEFANNY ZARATE CEL. 316 3929058 / EMPRESA PROMOLOGIC PARTE DEL GRUPO PROMOCON;RUMBA AEROBICA OBRA COTA 8 DE OCTUBRE RUMBATERAPIA EN ZONA FRANCA METROPOLITANA VEREDA VUELTA GRANDE PREDIO SAN RAFAEL KM 2.5 VI A SIBERIA HORA 10 AM  CONTACTO STEFANNY ZARATE CEL. 316 3929058 / EMPRESA PROMOLOGIC PARTE DEL GRUPO PROMOCON
4122815;REDES Y PROYECTOS DE ENERGIA SA EMA;PAUSAS SALUDABLES;PVE  PARA LA PREVENCIÓN DE DESORDENES MUSCULO ESQUELETICOS;4.0;4.0;;;;;;6560479;4.0;2020/10/01;2020/10/31;2020/08/24;;586;BOGOTA;586;BOGOTA;CR 68  75 A - 50 OF 516;7560155;;;;;Formacion virtual para los trabajadores en casa.;Formacion virtual para los trabajadores en casa.
4122815;REDES Y PROYECTOS DE ENERGIA SA EMA;PAUSAS SALUDABLES;PVE  PARA LA PREVENCIÓN DE DESORDENES MUSCULO ESQUELETICOS;4.0;4.0;;;;;;6560479;4.0;2020/09/01;2020/09/30;2020/08/24;;586;BOGOTA;586;BOGOTA;CR 68  75 A - 50 OF 516;7560155;;;;;Formacion virtual para los trabajadores en casa.;Formacion virtual para los trabajadores en casa.
4172594;HEEL COLOMBIA LTDA.;PAUSAS SALUDABLES;SOBREESFUERZOS (ATEL);6.0;6.0;;;;;;6208714;6.0;2020/11/01;2020/11/30;2020/09/20;N;586;BOGOTA;586;BOGOTA;CR 7   113-43 OF 703 EDIF TORRE SAMSUNG;6208714;;;;;PAUSAS SALUDABLES MES DE OCTUBRE;PAUSAS SALUDABLES MES DE OCTUBRE
4096045;T F AUDITORES Y ASESORES LTDA;PAUSAS SALUDABLES;PVE  PARA LA PREVENCIÓN DE DESORDENES MUSCULO ESQUELETICOS;2.0;2.0;;;;;;2712117;2.0;2020/12/01;2020/12/31;2020/08/10;N;586;BOGOTA;586;BOGOTA;CL 103  64-42 P 1 BRR SUBA TRIANGULO ANDES;2712117;;;;;REHABILITAR EXPRESS// DESARROLLO DE PAUSAS ACTIVAS/ DOS H POR MES. CONTACTO MARIO ACOSTA CEL. 3153903740;REHABILITAR EXPRESS// DESARROLLO DE PAUSAS ACTIVAS/ DOS H POR MES. CONTACTO MARIO ACOSTA CEL. 3153903740
4098941;INGENIERIA Y PROYECTOS DE COLOMBIA SAS;PAUSAS SALUDABLES;PVE  PARA LA PREVENCIÓN DE DESORDENES MUSCULO ESQUELETICOS;2.0;2.0;;;;;;4146445;2.0;2020/08/11;2020/08/31;2020/08/11;N;586;BOGOTA;586;BOGOTA;AUTOPISTA MEDELLIN KM 8.5 COSTADO SUR;4146445;;;;;SE SOLICITA EL CAMBIO DE CLASIFICACION PARA LA OC 3671843;SE SOLICITA EL CAMBIO DE CLASIFICACION PARA LA OC 3671843
